Term6,CourseNo6,Subject6
2192,630,DFC
2192,600,CBR
2192,630,CST
2192,600,PRO
2192,610,CYB
2192,610,CMP
2192,610,MBA
2192,630,MBA
2192,640,MBA
2192,630,MBA
2192,600,PRO
2192,630,MBA
2192,630,CST
2192,610,CYB
2192,630,CST
2192,620,MBA
2192,640,MBA
2192,600,CBR
2192,610,MBA
2192,600,PRO
2192,630,MBA
2192,600,PRO
2192,600,CBR
2192,600,CBR
2192,600,CBR
2192,610,MBA
2192,610,CYB
2192,600,CBR
2192,600,CBR
2192,600,CBR
2192,610,MBA
2192,600,PRO
1016456,GRAD,2192
1016471,GRAD,2192
1016735,GRAD,2192
1017043,GRAD,2192
1018961,GRAD,2192
1019373,GRAD,2192
1019924,GRAD,2192
1019963,GRAD,2192
1020262,GRAD,2192
1020496,GRAD,2192
1020572,GRAD,2195
1020861,GRAD,2192
1020930,GRAD,2192
1021189,GRAD,2192
1021556,GRAD,2192
1021987,GRAD,2192
1022093,GRAD,2192
1022093,GRAD,2195
